{"provider":"Tatakai","status":200,"data":{"pagination":{"last_visible_page":28777,"has_next_page":true,"current_page":1,"items":{"count":3,"total":86330,"per_page":3}},"data":[{"mal_id":2,"url":"https://myanimelist.net/manga/2/Berserk","images":{"jpg":{"image_url":"https://cdn.myanimelist.net/images/manga/1/157897.jpg","small_image_url":"https://cdn.myanimelist.net/images/manga/1/157897t.jpg","large_image_url":"https://cdn.myanimelist.net/images/manga/1/157897l.jpg"},"webp":{"image_url":"https://cdn.myanimelist.net/images/manga/1/157897.webp","small_image_url":"https://cdn.myanimelist.net/images/manga/1/157897t.webp","large_image_url":"https://cdn.myanimelist.net/images/manga/1/157897l.webp"}},"approved":true,"titles":[{"type":"Default","title":"Berserk"},{"type":"Synonym","title":"Berserk: The Prototype"},{"type":"Japanese","title":"ベルセルク"},{"type":"English","title":"Berserk"}],"title":"Berserk","title_english":"Berserk","title_japanese":"ベルセルク","title_synonyms":["Berserk: The Prototype"],"type":"Manga","chapters":null,"volumes":null,"status":"Publishing","publishing":true,"published":{"from":"1989-08-25T00:00:00+00:00","to":null,"prop":{"from":{"day":25,"month":8,"year":1989},"to":{"day":null,"month":null,"year":null}},"string":"Aug 25, 1989 to ?"},"score":9.47,"scored":9.47,"scored_by":391249,"rank":1,"popularity":1,"members":782201,"favorites":136664,"synopsis":"Guts, a former mercenary now known as the Black Swordsman, is out for revenge. After a tumultuous childhood, he finally finds someone he respects and believes he can trust, only to have everything fall apart when this person takes away everything important to Guts for the purpose of fulfilling his own desires. Now marked for death, Guts becomes condemned to a fate in which he is relentlessly pursued by demonic beings.\n\nSetting out on a dreadful quest riddled with misfortune, Guts, armed with a massive sword and monstrous strength, will let nothing stop him, not even death itself, until he is finally able to take the head of the one who stripped him—and his loved one—of their humanity.\n\n[Written by MAL Rewrite]\n\nIncluded one-shot:\nVolume 14: Berserk: The Prototype","background":"Berserk won the Excellence Award at the sixth Tezuka Osamu Cultural Prize in 2002. As of August 2025, over 70 million copies of the manga are in circulation. The series has been published in English by Dark Horse Comics since November 4, 2003. It has also been released in Argentina, Brazil, Czech Republic, France, Germany, Greece, Hong Kong, Italy, México, Poland, South Korea, Spain, Taiwan, Thailand, and Turkey. In May 2021, the author Kentaro Miura suddenly died at the age of 54. Chapter 364 of Berserk was published posthumously on September 10, 2021. Miura would often share details about the series' story with his childhood friend and fellow mangaka Kouji Mori. The series resumed on June 24, 2022, with Studio Gaga handling the art and Kouji Mori's supervision.","authors":[{"mal_id":1868,"type":"people","name":"Miura, Kentarou","url":"https://myanimelist.net/people/1868/Kentarou_Miura"},{"mal_id":49592,"type":"people","name":"Studio Gaga","url":"https://myanimelist.net/people/49592/Studio_Gaga"}],"serializations":[{"mal_id":2,"type":"manga","name":"Young Animal","url":"https://myanimelist.net/manga/magazine/2/Young_Animal"}],"genres":[{"mal_id":1,"type":"manga","name":"Action","url":"https://myanimelist.net/manga/genre/1/Action"},{"mal_id":2,"type":"manga","name":"Adventure","url":"https://myanimelist.net/manga/genre/2/Adventure"},{"mal_id":46,"type":"manga","name":"Award Winning","url":"https://myanimelist.net/manga/genre/46/Award_Winning"},{"mal_id":8,"type":"manga","name":"Drama","url":"https://myanimelist.net/manga/genre/8/Drama"},{"mal_id":10,"type":"manga","name":"Fantasy","url":"https://myanimelist.net/manga/genre/10/Fantasy"},{"mal_id":14,"type":"manga","name":"Horror","url":"https://myanimelist.net/manga/genre/14/Horror"}],"explicit_genres":[],"themes":[{"mal_id":58,"type":"manga","name":"Gore","url":"https://myanimelist.net/manga/genre/58/Gore"},{"mal_id":38,"type":"manga","name":"Military","url":"https://myanimelist.net/manga/genre/38/Military"},{"mal_id":40,"type":"manga","name":"Psychological","url":"https://myanimelist.net/manga/genre/40/Psychological"}],"demographics":[{"mal_id":41,"type":"manga","name":"Seinen","url":"https://myanimelist.net/manga/genre/41/Seinen"}]},{"mal_id":1706,"url":"https://myanimelist.net/manga/1706/JoJo_no_Kimyou_na_Bouken_Part_7__Steel_Ball_Run","images":{"jpg":{"image_url":"https://cdn.myanimelist.net/images/manga/3/179882.jpg","small_image_url":"https://cdn.myanimelist.net/images/manga/3/179882t.jpg","large_image_url":"https://cdn.myanimelist.net/images/manga/3/179882l.jpg"},"webp":{"image_url":"https://cdn.myanimelist.net/images/manga/3/179882.webp","small_image_url":"https://cdn.myanimelist.net/images/manga/3/179882t.webp","large_image_url":"https://cdn.myanimelist.net/images/manga/3/179882l.webp"}},"approved":true,"titles":[{"type":"Default","title":"JoJo no Kimyou na Bouken Part 7: Steel Ball Run"},{"type":"Synonym","title":"JoJo's Bizarre Adventure Part 7: Steel Ball Run"},{"type":"Synonym","title":"SBR"},{"type":"Japanese","title":"ジョジョの奇妙な冒険 Part7 STEEL BALL RUN"},{"type":"English","title":"JoJo's Bizarre Adventure Part 7: Steel Ball Run"},{"type":"French","title":"Steel Ball Run"}],"title":"JoJo no Kimyou na Bouken Part 7: Steel Ball Run","title_english":"JoJo's Bizarre Adventure Part 7: Steel Ball Run","title_japanese":"ジョジョの奇妙な冒険 Part7 STEEL BALL RUN","title_synonyms":["JoJo's Bizarre Adventure Part 7: Steel Ball Run","SBR"],"type":"Manga","chapters":96,"volumes":24,"status":"Finished","publishing":false,"published":{"from":"2004-01-19T00:00:00+00:00","to":"2011-04-19T00:00:00+00:00","prop":{"from":{"day":19,"month":1,"year":2004},"to":{"day":19,"month":4,"year":2011}},"string":"Jan 19, 2004 to Apr 19, 2011"},"score":9.33,"scored":9.33,"scored_by":190576,"rank":2,"popularity":22,"members":310897,"favorites":50371,"synopsis":"In the American Old West, the world's greatest race is about to begin. Thousands line up in San Diego to travel over six thousand kilometers for a chance to win the grand prize of fifty million dollars. With the era of the horse reaching its end, contestants are allowed to use any kind of vehicle they wish. Competitors will have to endure grueling conditions, traveling up to a hundred kilometers a day through uncharted wastelands. The Steel Ball Run is truly a one-of-a-kind event.\n\nThe youthful Johnny Joestar, a crippled former horse racer, has come to San Diego to watch the start of the race. There he encounters Gyro Zeppeli, a racer with two steel balls at his waist instead of a gun. Johnny witnesses Gyro using one of his steel balls to unleash a fantastical power, compelling a man to fire his gun at himself during a duel. In the midst of the action, Johnny happens to touch the steel ball and feels a power surging through his legs, allowing him to stand up for the first time in two years. Vowing to find the secret of the steel balls, Johnny decides to compete in the race, and so begins his bizarre adventure across America on the Steel Ball Run.\n\n[Written by MAL Rewrite]","background":"JoJo no Kimyou na Bouken Part 7: Steel Ball Run was originally presented as an unrelated story to the JoJo series and was serialized in Weekly Shounen Jump magazine as Steel Ball Run from issues #8~47 2004. Serialization then transferred to Ultra Jump magazine from issue April 2005 and the series was officially declared as Part 7 of the JoJo no Kimyou na Bouken series. The series has been published in English as JoJo’s Bizarre Adventure Part 7: Steel Ball Run by VIZ Media under the Shonen Jump imprint as 2-in-1 omnibus volumes since May 27, 2025.","authors":[{"mal_id":2619,"type":"people","name":"Araki, Hirohiko","url":"https://myanimelist.net/people/2619/Hirohiko_Araki"}],"serializations":[{"mal_id":25,"type":"manga","name":"Ultra Jump","url":"https://myanimelist.net/manga/magazine/25/Ultra_Jump"}],"genres":[{"mal_id":1,"type":"manga","name":"Action","url":"https://myanimelist.net/manga/genre/1/Action"},{"mal_id":2,"type":"manga","name":"Adventure","url":"https://myanimelist.net/manga/genre/2/Adventure"},{"mal_id":7,"type":"manga","name":"Mystery","url":"https://myanimelist.net/manga/genre/7/Mystery"},{"mal_id":37,"type":"manga","name":"Supernatural","url":"https://myanimelist.net/manga/genre/37/Supernatural"}],"explicit_genres":[],"themes":[{"mal_id":13,"type":"manga","name":"Historical","url":"https://myanimelist.net/manga/genre/13/Historical"}],"demographics":[{"mal_id":41,"type":"manga","name":"Seinen","url":"https://myanimelist.net/manga/genre/41/Seinen"},{"mal_id":27,"type":"manga","name":"Shounen","url":"https://myanimelist.net/manga/genre/27/Shounen"}]},{"mal_id":656,"url":"https://myanimelist.net/manga/656/Vagabond","images":{"jpg":{"image_url":"https://cdn.myanimelist.net/images/manga/1/259070.jpg","small_image_url":"https://cdn.myanimelist.net/images/manga/1/259070t.jpg","large_image_url":"https://cdn.myanimelist.net/images/manga/1/259070l.jpg"},"webp":{"image_url":"https://cdn.myanimelist.net/images/manga/1/259070.webp","small_image_url":"https://cdn.myanimelist.net/images/manga/1/259070t.webp","large_image_url":"https://cdn.myanimelist.net/images/manga/1/259070l.webp"}},"approved":true,"titles":[{"type":"Default","title":"Vagabond"},{"type":"Japanese","title":"バガボンド"},{"type":"English","title":"Vagabond"}],"title":"Vagabond","title_english":"Vagabond","title_japanese":"バガボンド","title_synonyms":[],"type":"Manga","chapters":327,"volumes":37,"status":"On Hiatus","publishing":false,"published":{"from":"1998-09-03T00:00:00+00:00","to":"2015-05-21T00:00:00+00:00","prop":{"from":{"day":3,"month":9,"year":1998},"to":{"day":21,"month":5,"year":2015}},"string":"Sep 3, 1998 to May 21, 2015"},"score":9.27,"scored":9.27,"scored_by":171342,"rank":3,"popularity":12,"members":448025,"favorites":47914,"synopsis":"In 16th-century Japan, Shinmen Takezou is a wild, rough young man in both his appearance and his actions. His aggressive nature has won him the collective reproach and fear of his village, leading him and his best friend, Matahachi Honiden, to run away in search of something grander than provincial life. The pair enlist in the Toyotomi army, yearning for glory—but when the Toyotomi suffer a crushing defeat at the hands of the Tokugawa Clan at the Battle of Sekigahara, the friends barely make it out alive.\n\nAfter the two are separated, Shinmen returns home on a self-appointed mission to notify the Hon'iden family of Matahachi's survival. He instead finds himself a wanted criminal, framed for his friend's supposed murder based on his history of violence. Upon being captured, he is strung up on a tree and left to die. An itinerant monk, the distinguished Takuan Soho, takes pity on the \"devil child,\" secretly freeing Shinmen and christening him with a new name to avoid pursuit by the authorities: Musashi Miyamoto.\n\nVagabond is the fictitious retelling of the life of one of Japan's most renowned swordsmen, the \"Sword Saint\" Musashi Miyamoto—his rise from a swordsman with no desire other than to become \"Invincible Under the Heavens\" to an enlightened warrior who slowly learns of the importance of close friends, self-reflection, and life itself.\n\n[Written by MAL Rewrite]","background":"Vagabond won the Japan Media Arts Festival Manga Grand Prize and the 24th Kodansha Manga Award in the General category in 2000. The series won the Tezuka Osamu Cultural Prize in 2002 and has had over 82 million copies sold worldwide. Vagabond was published in English by VIZ Media under the VIZ Signature imprint from April 5, 2002, to April 21, 2015, and in large 3-in-1 omnibuses under the VIZBIG imprint from September 16, 2008, to April 21, 2015. The English release got Takehiko Inoue a nomination for the Eisner Award in the Best Writer/Artist category in 2003. It was also published in Brazilian Portuguese by Panini Comics from February 2016 to February 2019.","authors":[{"mal_id":1911,"type":"people","name":"Inoue, Takehiko","url":"https://myanimelist.net/people/1911/Takehiko_Inoue"},{"mal_id":5760,"type":"people","name":"Yoshikawa, Eiji","url":"https://myanimelist.net/people/5760/Eiji_Yoshikawa"}],"serializations":[{"mal_id":72,"type":"manga","name":"Morning","url":"https://myanimelist.net/manga/magazine/72/Morning"}],"genres":[{"mal_id":1,"type":"manga","name":"Action","url":"https://myanimelist.net/manga/genre/1/Action"},{"mal_id":2,"type":"manga","name":"Adventure","url":"https://myanimelist.net/manga/genre/2/Adventure"},{"mal_id":46,"type":"manga","name":"Award Winning","url":"https://myanimelist.net/manga/genre/46/Award_Winning"}],"explicit_genres":[],"themes":[{"mal_id":13,"type":"manga","name":"Historical","url":"https://myanimelist.net/manga/genre/13/Historical"},{"mal_id":21,"type":"manga","name":"Samurai","url":"https://myanimelist.net/manga/genre/21/Samurai"}],"demographics":[{"mal_id":41,"type":"manga","name":"Seinen","url":"https://myanimelist.net/manga/genre/41/Seinen"}]}]}}