{"provider":"Tatakai","status":200,"data":{"pagination":{"last_visible_page":49,"has_next_page":true,"current_page":1,"items":{"count":3,"total":147,"per_page":3}},"data":[{"mal_id":59978,"url":"https://myanimelist.net/anime/59978/Sousou_no_Frieren_2nd_Season","images":{"jpg":{"image_url":"https://cdn.myanimelist.net/images/anime/1921/154528.jpg","small_image_url":"https://cdn.myanimelist.net/images/anime/1921/154528t.jpg","large_image_url":"https://cdn.myanimelist.net/images/anime/1921/154528l.jpg"},"webp":{"image_url":"https://cdn.myanimelist.net/images/anime/1921/154528.webp","small_image_url":"https://cdn.myanimelist.net/images/anime/1921/154528t.webp","large_image_url":"https://cdn.myanimelist.net/images/anime/1921/154528l.webp"}},"trailer":{"youtube_id":null,"url":null,"embed_url":"https://www.youtube-nocookie.com/embed/RH-FcW94z00?enablejsapi=1&wmode=opaque&autoplay=1","images":{"image_url":null,"small_image_url":null,"medium_image_url":null,"large_image_url":null,"maximum_image_url":null}},"approved":true,"titles":[{"type":"Default","title":"Sousou no Frieren 2nd Season"},{"type":"Synonym","title":"Frieren at the Funeral Season 2"},{"type":"Japanese","title":"葬送のフリーレン 第2期"},{"type":"English","title":"Frieren: Beyond Journey's End Season 2"}],"title":"Sousou no Frieren 2nd Season","title_english":"Frieren: Beyond Journey's End Season 2","title_japanese":"葬送のフリーレン 第2期","title_synonyms":["Frieren at the Funeral Season 2"],"type":"TV","source":"Manga","episodes":10,"status":"Currently Airing","airing":true,"aired":{"from":"2026-01-16T00:00:00+00:00","to":null,"prop":{"from":{"day":16,"month":1,"year":2026},"to":{"day":null,"month":null,"year":null}},"string":"Jan 16, 2026 to ?"},"duration":"24 min per ep","rating":"PG-13 - Teens 13 or older","score":9.32,"scored_by":27053,"rank":1,"popularity":809,"members":336070,"favorites":4082,"synopsis":"Second season of Sousou no Frieren.","background":"Sousou no Frieren 2nd Season aired on Nippon TV's Friday Anime Night block.","season":"winter","year":2026,"broadcast":{"day":"Fridays","time":"23:00","timezone":"Asia/Tokyo","string":"Fridays at 23:00 (JST)"},"producers":[{"mal_id":17,"type":"anime","name":"Aniplex","url":"https://myanimelist.net/anime/producer/17/Aniplex"},{"mal_id":53,"type":"anime","name":"Dentsu","url":"https://myanimelist.net/anime/producer/53/Dentsu"},{"mal_id":62,"type":"anime","name":"Shogakukan-Shueisha Productions","url":"https://myanimelist.net/anime/producer/62/Shogakukan-Shueisha_Productions"},{"mal_id":1003,"type":"anime","name":"Nippon Television Network","url":"https://myanimelist.net/anime/producer/1003/Nippon_Television_Network"},{"mal_id":1143,"type":"anime","name":"TOHO animation","url":"https://myanimelist.net/anime/producer/1143/TOHO_animation"},{"mal_id":1294,"type":"anime","name":"Sound Team Don Juan","url":"https://myanimelist.net/anime/producer/1294/Sound_Team_Don_Juan"},{"mal_id":1406,"type":"anime","name":"Miracle Bus","url":"https://myanimelist.net/anime/producer/1406/Miracle_Bus"},{"mal_id":1430,"type":"anime","name":"Shogakukan","url":"https://myanimelist.net/anime/producer/1430/Shogakukan"},{"mal_id":2229,"type":"anime","name":"Toho Music","url":"https://myanimelist.net/anime/producer/2229/Toho_Music"}],"licensors":[],"studios":[{"mal_id":11,"type":"anime","name":"Madhouse","url":"https://myanimelist.net/anime/producer/11/Madhouse"}],"genres":[{"mal_id":2,"type":"anime","name":"Adventure","url":"https://myanimelist.net/anime/genre/2/Adventure"},{"mal_id":8,"type":"anime","name":"Drama","url":"https://myanimelist.net/anime/genre/8/Drama"},{"mal_id":10,"type":"anime","name":"Fantasy","url":"https://myanimelist.net/anime/genre/10/Fantasy"}],"explicit_genres":[],"themes":[],"demographics":[{"mal_id":27,"type":"anime","name":"Shounen","url":"https://myanimelist.net/anime/genre/27/Shounen"}]},{"mal_id":57658,"url":"https://myanimelist.net/anime/57658/Jujutsu_Kaisen__Shimetsu_Kaiyuu_-_Zenpen","images":{"jpg":{"image_url":"https://cdn.myanimelist.net/images/anime/1659/154920.jpg","small_image_url":"https://cdn.myanimelist.net/images/anime/1659/154920t.jpg","large_image_url":"https://cdn.myanimelist.net/images/anime/1659/154920l.jpg"},"webp":{"image_url":"https://cdn.myanimelist.net/images/anime/1659/154920.webp","small_image_url":"https://cdn.myanimelist.net/images/anime/1659/154920t.webp","large_image_url":"https://cdn.myanimelist.net/images/anime/1659/154920l.webp"}},"trailer":{"youtube_id":null,"url":null,"embed_url":"https://www.youtube-nocookie.com/embed/ruX3rIj3--w?enablejsapi=1&wmode=opaque&autoplay=1","images":{"image_url":null,"small_image_url":null,"medium_image_url":null,"large_image_url":null,"maximum_image_url":null}},"approved":true,"titles":[{"type":"Default","title":"Jujutsu Kaisen: Shimetsu Kaiyuu - Zenpen"},{"type":"Synonym","title":"Jujutsu Kaisen 3rd Season"},{"type":"Japanese","title":"呪術廻戦 「死滅回游 前編」"},{"type":"English","title":"Jujutsu Kaisen: The Culling Game Part 1"}],"title":"Jujutsu Kaisen: Shimetsu Kaiyuu - Zenpen","title_english":"Jujutsu Kaisen: The Culling Game Part 1","title_japanese":"呪術廻戦 「死滅回游 前編」","title_synonyms":["Jujutsu Kaisen 3rd Season"],"type":"TV","source":"Manga","episodes":12,"status":"Currently Airing","airing":true,"aired":{"from":"2026-01-09T00:00:00+00:00","to":null,"prop":{"from":{"day":9,"month":1,"year":2026},"to":{"day":null,"month":null,"year":null}},"string":"Jan 9, 2026 to ?"},"duration":"23 min per ep","rating":"R - 17+ (violence & profanity)","score":8.59,"scored_by":27387,"rank":111,"popularity":926,"members":296591,"favorites":1429,"synopsis":"Sequel to Jujutsu Kaisen 2nd Season.","background":"","season":"winter","year":2026,"broadcast":{"day":"Fridays","time":"00:26","timezone":"Asia/Tokyo","string":"Fridays at 00:26 (JST)"},"producers":[{"mal_id":143,"type":"anime","name":"Mainichi Broadcasting System","url":"https://myanimelist.net/anime/producer/143/Mainichi_Broadcasting_System"},{"mal_id":1143,"type":"anime","name":"TOHO animation","url":"https://myanimelist.net/anime/producer/1143/TOHO_animation"},{"mal_id":1365,"type":"anime","name":"Shueisha","url":"https://myanimelist.net/anime/producer/1365/Shueisha"},{"mal_id":1856,"type":"anime","name":"dugout","url":"https://myanimelist.net/anime/producer/1856/dugout"},{"mal_id":2229,"type":"anime","name":"Toho Music","url":"https://myanimelist.net/anime/producer/2229/Toho_Music"},{"mal_id":2260,"type":"anime","name":"Sumzap","url":"https://myanimelist.net/anime/producer/2260/Sumzap"}],"licensors":[],"studios":[{"mal_id":569,"type":"anime","name":"MAPPA","url":"https://myanimelist.net/anime/producer/569/MAPPA"}],"genres":[{"mal_id":1,"type":"anime","name":"Action","url":"https://myanimelist.net/anime/genre/1/Action"},{"mal_id":37,"type":"anime","name":"Supernatural","url":"https://myanimelist.net/anime/genre/37/Supernatural"}],"explicit_genres":[],"themes":[{"mal_id":23,"type":"anime","name":"School","url":"https://myanimelist.net/anime/genre/23/School"}],"demographics":[{"mal_id":27,"type":"anime","name":"Shounen","url":"https://myanimelist.net/anime/genre/27/Shounen"}]},{"mal_id":55825,"url":"https://myanimelist.net/anime/55825/Jigokuraku_2nd_Season","images":{"jpg":{"image_url":"https://cdn.myanimelist.net/images/anime/1772/154456.jpg","small_image_url":"https://cdn.myanimelist.net/images/anime/1772/154456t.jpg","large_image_url":"https://cdn.myanimelist.net/images/anime/1772/154456l.jpg"},"webp":{"image_url":"https://cdn.myanimelist.net/images/anime/1772/154456.webp","small_image_url":"https://cdn.myanimelist.net/images/anime/1772/154456t.webp","large_image_url":"https://cdn.myanimelist.net/images/anime/1772/154456l.webp"}},"trailer":{"youtube_id":null,"url":null,"embed_url":"https://www.youtube-nocookie.com/embed/kBnmkMngfak?enablejsapi=1&wmode=opaque&autoplay=1","images":{"image_url":null,"small_image_url":null,"medium_image_url":null,"large_image_url":null,"maximum_image_url":null}},"approved":true,"titles":[{"type":"Default","title":"Jigokuraku 2nd Season"},{"type":"Synonym","title":"Paradition"},{"type":"Synonym","title":"Heavenhell"},{"type":"Japanese","title":"地獄楽第二期"},{"type":"English","title":"Hell's Paradise Season 2"}],"title":"Jigokuraku 2nd Season","title_english":"Hell's Paradise Season 2","title_japanese":"地獄楽第二期","title_synonyms":["Paradition","Heavenhell"],"type":"TV","source":"Manga","episodes":12,"status":"Currently Airing","airing":true,"aired":{"from":"2026-01-11T00:00:00+00:00","to":null,"prop":{"from":{"day":11,"month":1,"year":2026},"to":{"day":null,"month":null,"year":null}},"string":"Jan 11, 2026 to ?"},"duration":"24 min per ep","rating":"R - 17+ (violence & profanity)","score":8.15,"scored_by":12781,"rank":495,"popularity":1046,"members":264803,"favorites":2235,"synopsis":"Second season of Jigokuraku.","background":"","season":"winter","year":2026,"broadcast":{"day":"Sundays","time":"23:45","timezone":"Asia/Tokyo","string":"Sundays at 23:45 (JST)"},"producers":[{"mal_id":769,"type":"anime","name":"Fujipacific Music","url":"https://myanimelist.net/anime/producer/769/Fujipacific_Music"},{"mal_id":1747,"type":"anime","name":"Twin Engine","url":"https://myanimelist.net/anime/producer/1747/Twin_Engine"},{"mal_id":1856,"type":"anime","name":"dugout","url":"https://myanimelist.net/anime/producer/1856/dugout"}],"licensors":[],"studios":[{"mal_id":569,"type":"anime","name":"MAPPA","url":"https://myanimelist.net/anime/producer/569/MAPPA"}],"genres":[{"mal_id":1,"type":"anime","name":"Action","url":"https://myanimelist.net/anime/genre/1/Action"},{"mal_id":2,"type":"anime","name":"Adventure","url":"https://myanimelist.net/anime/genre/2/Adventure"},{"mal_id":37,"type":"anime","name":"Supernatural","url":"https://myanimelist.net/anime/genre/37/Supernatural"}],"explicit_genres":[],"themes":[{"mal_id":58,"type":"anime","name":"Gore","url":"https://myanimelist.net/anime/genre/58/Gore"},{"mal_id":13,"type":"anime","name":"Historical","url":"https://myanimelist.net/anime/genre/13/Historical"},{"mal_id":21,"type":"anime","name":"Samurai","url":"https://myanimelist.net/anime/genre/21/Samurai"}],"demographics":[{"mal_id":27,"type":"anime","name":"Shounen","url":"https://myanimelist.net/anime/genre/27/Shounen"}]}]}}