{"provider":"Tatakai","status":200,"data":{"pagination":{"last_visible_page":8332,"has_next_page":true,"current_page":1,"items":{"count":3,"total":24996,"per_page":3}},"data":[{"mal_id":118,"url":"https://myanimelist.net/people/118/Hiroshi_Kamiya","website_url":null,"images":{"jpg":{"image_url":"https://cdn.myanimelist.net/images/voiceactors/1/66163.jpg"}},"name":"Hiroshi Kamiya","given_name":"浩史","family_name":"神谷","alternate_names":["ヒロC","HiroC","Kamiyan"],"birthday":"1975-01-28T00:00:00+00:00","favorites":108359,"about":"Birth place: Matsudo, Chiba Prefecture, Japan\nHeight: 167 cm (5'6\")\nWeight: 53 kg (117 lbs)\nBlood type: A\n\nKamiya Hiroshi went to Aoni Juku and decided to pursue voice acting. Since then, he's been affiliated with Aoni Production from his debut in 1994 to present.\n\nKamiya Hiroshi hosts several radio programs, one of the oldest and most prevalent programs he hosts together with a fellow seiyuu Ono Daisuke is Kamiya Hiroshi Ono Daisuke no DearGirl: Stories (神谷浩史・小野大輔のDearGirl～Stories～) since April 2007. The program they hosted together won \"Best Personality Awards\" in the 9th Annual Seiyuu Awards in 2015.\n\nHe and Ono Daisuke are vocalists of MasochistiC Ono BanD (MOB) that debuted in Nippon Budoukan in 2013 through the DearGirl: Stories Festival Carnival Matsuri. MOB went on hiatus in 2015 but the band announced their coming back on the 10th-anniversary celebration of his and Ono Daisuke's radio program, that was held on July 25, 2016.\n\nIn May 2010, he and Miyu Irino banded a Kiramune-unit called KAmiYU, for Mokei Senshi Gunpla Builders Beginning G theme song. First Mini-album \"link-up\" was released on August 3, 2011.\n\nAwards:\n- 2nd Seiyuu Awards (2008) - Best Supporting Actor Award\n- 3rd Seiyuu Awards (2009) - Best Actor and Best Personality Awards\n- Tokyo Anime Awards (2010) - Voice Actor Award\n- 6th Seiyuu Awards (2012) - Most Votes Award\n- 7th Seiyuu Awards (2013) - Most Votes Award\n- 8th Seiyuu Awards (2014) - Most Votes Award\n- 9th Seiyuu Awards (2015) - Best Personality and Most Votes Awards\n- 10th Seiyuu Awards (2016) - Most Votes Award - winning the award for 5 consecutive times earned him induction into Seiyuu Awards' Hall of Fame\n- 13th Seiyuu Awards (2019) - Most Votes Award\n- 14th Seiyuu Awards (2020) - Most Votes Award\n\nAnnounced his marriage to actress Rina Aizawa on January 1, 2025.\n\nProfile: Aoni\nTwitter (Music): @Utahiroshi15th\nInstagram: @hiroshi1975kamiya"},{"mal_id":185,"url":"https://myanimelist.net/people/185/Kana_Hanazawa","website_url":"https://hanazawa-kana.com/","images":{"jpg":{"image_url":"https://cdn.myanimelist.net/images/voiceactors/3/69318.jpg"}},"name":"Kana Hanazawa","given_name":"香菜","family_name":"花澤","alternate_names":["HanaKana","KanaHana"],"birthday":"1989-02-25T00:00:00+00:00","favorites":102629,"about":"Hometown: Tokyo, Japan\nHeight: 156 cm\nBlood type: AB\n\nKana Hanazawa used to be a junior idol in Akihabara, where hundreds of people came to watch her. It was her time as an idol that she got her breakthrough in her acting career in commercials before becoming a voice actor.\n\nOn July 8, 2020, she announced her marriage to fellow voice actor Kensho Ono. On September 14, 2025, she announced her divorce.\n\nProfile: Office Osawa\nTwitter: @hanazawa_staff\nYouTube: @hanazawa_kana\nInstagram: @hanazawa_kana.official\nTikTok: @hanazawa_kana.official"},{"mal_id":65,"url":"https://myanimelist.net/people/65/Mamoru_Miyano","website_url":"http://miyanomamoru.com/","images":{"jpg":{"image_url":"https://cdn.myanimelist.net/images/voiceactors/1/66414.jpg"}},"name":"Mamoru Miyano","given_name":"真守","family_name":"宮野","alternate_names":[],"birthday":"1983-06-08T00:00:00+00:00","favorites":92756,"about":"Hometown: Saitama, Japan\nHeight: 182 cm\nWeight: 70 kg\nBlood type: B\nHobbies: singing, soccer\nSkills: harmonica, harp\n\nMamoru Miyano won Best Voice Actor award in the Second Seiyuu Awards for leading roles of Kida Masaomi (Durarara!!), Setsuna F Seiei (Mobile Suit Gundam 00) and Hakugen Rikuson (Koutetsu Sangokushi). He married in late 2008; 2-3 months after his announcement, their son was born. His divorce was announced in December 2023.  He left Gekidan Himawari on June 8, 2025 and joined Ken On on June 9, 2025.\n\nBlog: Line\nFacebook: Mamoru Miyano（宮野真守）\nYouTube: @miyanomamoru\nTwitter: @miyanomamoru_PR\nInstagram: @miyano_mamoru_pr\nTikTok: @miyano_mamoru_pr\nAgency: KEN ON\n\nFormer Agency: Himawari"}]}}